…
    ## Warning in full_join(dn_nc, lq_nc, by = "state"): Detected an unexpected many-to-many relationship between `x` and `y`.
    ## ℹ Row 1 of `x` matches multiple rows in `y`.
    ## ℹ Row 1 of `y` matches multiple rows in `x`.
    ## ℹ If a many-to-many relationship is expected, set `relationship =
    ##   "many-to-many"` to silence this warning.

``` r
dn_lq_nc
```

    ## # A tibble: 336 × 11
    ##    address.x    city.x state zip.x longitude.x latitude.x address.y city.y zip.y
    ##    <chr>        <chr>  <chr> <chr>       <dbl>      <dbl> <chr>     <chr>  <chr>
    ##  1 1 Regent Pa… Ashev… NC    28806       -82.6       35.6 165 Hwy … Boone  28607
    ##  2 1 Regent Pa… Ashev… NC    28806       -82.6       35.6 3127 Slo… Charl… 28208
    ##  3 1 Regent Pa… Ashev… NC    28806       -82.6       35.6 4900 Sou… Charl… 28217
    ##  4 1 Regent Pa… Ashev… NC    28806       -82.6       35.6 4414 Dur… Durham 27707
    ##  5 1 Regent Pa… Ashev… NC    28806       -82.6       35.6 1910 Wes… Durham 27713
    ##  6 1 Regent Pa… Ashev… NC    28806       -82.6       35.6 1201 Lan… Green… 27407
    ##  7 1 Regent Pa… Ashev… NC    28806       -82.6       35.6 1607 Fai… Conov… 28613
    ##  8 1 Regent Pa… Ashev… NC    28806       -82.6       35.6 191 Cres… Cary   27518
    ##  9 1 Regent Pa… Ashev… NC    28806       -82.6       35.6 2211 Sum… Ralei… 27612
    ## 10 1 Regent Pa… Ashev… NC    28806       -82.6       35.6 1001 Aer… Morri… 27560
    ## # ℹ 326 more rows
    ## # ℹ 2 more variables: longitude.y <dbl>, latitude.y <dbl>
…
    ## Warning in full_join(dn_tx, lq_tx, by = "state"): Detected an unexpected many-to-many relationship between `x` and `y`.
    ## ℹ Row 1 of `x` matches multiple rows in `y`.
    ## ℹ Row 1 of `y` matches multiple rows in `x`.
    ## ℹ If a many-to-many relationship is expected, set `relationship =
    ##   "many-to-many"` to silence this warning.

``` r
dn_lq_tx
```

    ## # A tibble: 47,400 × 11
    ##    address.x    city.x state zip.x longitude.x latitude.x address.y city.y zip.y
    ##    <chr>        <chr>  <chr> <chr>       <dbl>      <dbl> <chr>     <chr>  <chr>
    ##  1 120 East I-… Abile… TX    79601       -99.6       32.4 3018 Cat… Abile… 79606
    ##  2 120 East I-… Abile… TX    79601       -99.6       32.4 3501 Wes… Abile… 79601
    ##  3 120 East I-… Abile… TX    79601       -99.6       32.4 14925 La… Addis… 75254
    ##  4 120 East I-… Abile… TX    79601       -99.6       32.4 909 East… Alamo  78516
    ##  5 120 East I-… Abile… TX    79601       -99.6       32.4 2400 Eas… Alice  78332
    ##  6 120 East I-… Abile… TX    79601       -99.6       32.4 1220 Nor… Allen  75013
    ##  7 120 East I-… Abile… TX    79601       -99.6       32.4 1165 Hwy… Alvar… 76009
    ##  8 120 East I-… Abile… TX    79601       -99.6       32.4 880 Sout… Alvin  77511
    ##  9 120 East I-… Abile… TX    79601       -99.6       32.4 1708 Int… Amari… 79103
    ## 10 120 East I-… Abile… TX    79601       -99.6       32.4 9305 Eas… Amari… 79118
    ## # ℹ 47,390 more rows
    ## # ℹ 2 more variables: longitude.y <dbl>, latitude.y <dbl>
…
    ## Warning in full_join(dn_ga, lq_ga, by = "state"): Detected an unexpected many-to-many relationship between `x` and `y`.
    ## ℹ Row 1 of `x` matches multiple rows in `y`.
    ## ℹ Row 1 of `y` matches multiple rows in `x`.
    ## ℹ If a many-to-many relationship is expected, set `relationship =
    ##   "many-to-many"` to silence this warning.

``` r
dn_lq_ga
```

    ## # A tibble: 902 × 11
    ##    address.x    city.x state zip.x longitude.x latitude.x address.y city.y zip.y
    ##    <chr>        <chr>  <chr> <chr>       <dbl>      <dbl> <chr>     <chr>  <chr>
    ##  1 3026 Washin… Augus… GA    30907       -82.0       33.5 184 Nort… Acwor… 30102
    ##  2 3026 Washin… Augus… GA    30907       -82.0       33.5 1200 Vir… Atlan… 30344
    ##  3 3026 Washin… Augus… GA    30907       -82.0       33.5 4820 Mas… Atlan… 30337
    ##  4 3026 Washin… Augus… GA    30907       -82.0       33.5 1350 Nor… Alpha… 30022
    ##  5 3026 Washin… Augus… GA    30907       -82.0       33.5 1184 Dog… Conye… 30012
    ##  6 3026 Washin… Augus… GA    30907       -82.0       33.5 1000 Lin… Dougl… 30134
    ##  7 3026 Washin… Augus… GA    30907       -82.0       33.5 2370 Ste… Duluth 30096
    ##  8 3026 Washin… Augus… GA    30907       -82.0       33.5 2535 Cha… Atlan… 30324
    ##  9 3026 Washin… Augus… GA    30907       -82.0       33.5 2415 Pac… Atlan… 30339
    ## 10 3026 Washin… Augus… GA    30907       -82.0       33.5 6260 Pea… Atlan… 30328
    ## # ℹ 892 more rows
    ## # ℹ 2 more variables: longitude.y <dbl>, latitude.y <dbl>
…
